-16 -208 -160 584
-40 32 -40 -112 -80 -240 -192 200
-56 -136 -8 -128 -24 -120 472
-8 -176 -8 -128 -112 16 -64 424
-64 -208 -16 136 -128 -176 -184 24
-16 -120 -80 -136 608
-32 -24 -64 48 -128 656
-152 88 -176 -16 -176 344
-48 -120 -16 -48 -176 -80 456
-48 -48 -120 -184 24 -24 -200 -112 168
-16 -144 -16 -184 72 -144 -40 -48 -152 104
-72 -40 -88 -160 -64 528
-72 -144 -40 -32 -64 -184 408
64 -64 848
-40 -176 -224 -208 -128 176
