-8 976
-992
992
992
992
-240 160 -80 -120 360
-240 -80 72 -80 -120 -240 112
-240 -80 -160 -120 -240 112
-16 -24 24 -24 872
992
992
-160 -160 -160 -160 -160 -152
-80 168 -80 -80 -80 80 -80 -80 -80 -112
-400 584
88 -192 -272 -160 -160 80
