-56 -16 -72 -56 -24 -8 -40 -16 640
72 -32 -40 -80 736
56 -16 -24 -32 -64 760
88 -40 -80 -120 -16 -24 576
8 -40 -56 64 -8 -24 744
8 -40 56 -32 40 -48 -32 -40 -48 576
-32 88 -40 -72 -40 -48 624
-32 -48 -56 -64 -8 744
256 -88 -320 -40 -8 -16 216
-32 112 -8 -80 -80 -80 -80 464
